<svg width="84" height="84" viewBox="0 0 84 84" fill="none" xmlns="http://www.w3.org/2000/svg">
<path d="M79.0781 0H4.92188C2.20779 0 0 2.20779 0 4.92188V60.0469C0 62.761 2.20779 64.9688 4.92188 64.9688H46.1394C47.5057 68.8819 50.4076 72.0811 54.1195 73.8409V82.3594C54.1195 82.9547 54.4425 83.5033 54.9622 83.793C55.4826 84.0827 56.1183 84.0673 56.6246 83.7539L60.7031 81.227L64.7816 83.7539C65.0463 83.9173 65.3456 84 65.6461 84C65.9204 84 66.1954 83.9308 66.444 83.793C66.9638 83.5033 67.2868 82.9547 67.2868 82.3594V73.8409C70.9987 72.0811 73.9005 68.8819 75.2669 64.9688H79.0781C81.7922 64.9688 84 62.761 84 60.0469V4.92188C84 2.20779 81.7922 0 79.0781 0ZM64.0055 79.4127L61.567 77.9021C61.0377 77.5746 60.3686 77.5746 59.8392 77.9021L57.4007 79.4127V74.9618C58.4652 75.1945 59.5701 75.3188 60.7031 75.3188C61.8362 75.3188 62.941 75.1945 64.0055 74.9618V79.4127ZM60.7031 72.0375C54.0086 72.0375 48.5625 66.5914 48.5625 59.8969C48.5625 53.2024 54.0086 47.7563 60.7031 47.7563C67.3976 47.7563 72.8438 53.2024 72.8438 59.8969C72.8438 66.5914 67.3976 72.0375 60.7031 72.0375ZM80.7188 60.0469C80.7188 60.9518 79.983 61.6875 79.0781 61.6875H76.0205C76.0885 61.0998 76.125 60.5025 76.125 59.8969C76.125 56.3414 74.915 53.064 72.886 50.4524C73.3987 50.289 73.9358 50.2031 74.4844 50.2031C75.3906 50.2031 76.125 49.4687 76.125 48.5625V16.4062C76.125 15.5001 75.3906 14.7656 74.4844 14.7656C71.5896 14.7656 69.2344 12.4104 69.2344 9.51562C69.2344 8.60944 68.4999 7.875 67.5938 7.875H48.7368C47.8306 7.875 47.0962 8.60944 47.0962 9.51562C47.0962 10.4218 47.8306 11.1562 48.7368 11.1562H66.1114C66.7747 14.5471 69.4529 17.2253 72.8438 17.8886V47.0795C72.0023 47.2436 71.1916 47.5339 70.4347 47.9428C67.779 45.776 64.39 44.475 60.7031 44.475C54.3592 44.475 48.8983 48.326 46.5335 53.8125H17.8886C17.2253 50.4217 14.5471 47.7435 11.1562 47.0802V17.8886C14.5471 17.2253 17.2253 14.5471 17.8886 11.1562H35.6118C36.518 11.1562 37.2524 10.4218 37.2524 9.51562C37.2524 8.60944 36.518 7.875 35.6118 7.875H16.4062C15.5001 7.875 14.7656 8.60944 14.7656 9.51562C14.7656 12.4104 12.4104 14.7656 9.51562 14.7656C8.60944 14.7656 7.875 15.5001 7.875 16.4062V48.5625C7.875 49.4687 8.60944 50.2031 9.51562 50.2031C12.4104 50.2031 14.7656 52.5583 14.7656 55.4531C14.7656 56.3593 15.5001 57.0938 16.4062 57.0938H45.5376C45.3697 58.0031 45.2812 58.9401 45.2812 59.8969C45.2812 60.5025 45.3178 61.0998 45.3857 61.6875H4.92188C4.01697 61.6875 3.28125 60.9518 3.28125 60.0469V4.92188C3.28125 4.01697 4.01697 3.28125 4.92188 3.28125H79.0781C79.983 3.28125 80.7188 4.01697 80.7188 4.92188V60.0469Z" fill="#39558D"/>
<path d="M60.7031 51.6938C56.1799 51.6938 52.5 55.3736 52.5 59.8969C52.5 64.4201 56.1799 68.1 60.7031 68.1C65.2264 68.1 68.9062 64.4201 68.9062 59.8969C68.9062 55.3736 65.2264 51.6938 60.7031 51.6938ZM60.7031 64.8188C57.989 64.8188 55.7812 62.611 55.7812 59.8969C55.7812 57.1828 57.989 54.975 60.7031 54.975C63.4172 54.975 65.625 57.1828 65.625 59.8969C65.625 62.611 63.4172 64.8188 60.7031 64.8188Z" fill="#39558D"/>
<path d="M33.9712 25.1836C33.9712 29.7068 37.6511 33.3867 42.1743 33.3867C46.6976 33.3867 50.3774 29.7068 50.3774 25.1836C50.3774 20.6603 46.6976 16.9805 42.1743 16.9805C37.6511 16.9805 33.9712 20.6603 33.9712 25.1836ZM47.0962 25.1836C47.0962 27.8977 44.8884 30.1055 42.1743 30.1055C39.4602 30.1055 37.2524 27.8977 37.2524 25.1836C37.2524 22.4695 39.4602 20.2617 42.1743 20.2617C44.8884 20.2617 47.0962 22.4695 47.0962 25.1836Z" fill="#39558D"/>
<path d="M26.1995 39.1289C26.1995 40.0351 26.9339 40.7695 27.8401 40.7695H56.1601C57.0663 40.7695 57.8007 40.0351 57.8007 39.1289C57.8007 38.2227 57.0663 37.4883 56.1601 37.4883H27.8401C26.9339 37.4883 26.1995 38.2227 26.1995 39.1289Z" fill="#39558D"/>
<path d="M46.9219 44.707H37.0781C36.1719 44.707 35.4375 45.4415 35.4375 46.3477C35.4375 47.2538 36.1719 47.9883 37.0781 47.9883H46.9219C47.8281 47.9883 48.5625 47.2538 48.5625 46.3477C48.5625 45.4415 47.8281 44.707 46.9219 44.707Z" fill="#39558D"/>
<path d="M8.35565 56.6131C8.66071 56.9182 9.08432 57.0938 9.51562 57.0938C9.94693 57.0938 10.3705 56.9182 10.6756 56.6131C10.9807 56.308 11.1562 55.8844 11.1562 55.4531C11.1562 55.0218 10.9807 54.5982 10.6756 54.2932C10.3705 53.9881 9.94693 53.8125 9.51562 53.8125C9.08432 53.8125 8.66071 53.9881 8.35565 54.2932C8.0506 54.5982 7.875 55.0218 7.875 55.4531C7.875 55.8844 8.0506 56.308 8.35565 56.6131Z" fill="#39558D"/>
<path d="M9.51562 7.875C9.08432 7.875 8.66071 8.0506 8.35565 8.35565C8.0506 8.66071 7.875 9.08432 7.875 9.51562C7.875 9.94693 8.0506 10.3705 8.35565 10.6756C8.66071 10.9807 9.08432 11.1562 9.51562 11.1562C9.94693 11.1562 10.3705 10.9807 10.6756 10.6756C10.9807 10.3705 11.1562 9.94693 11.1562 9.51562C11.1562 9.08432 10.9807 8.66071 10.6756 8.35565C10.3705 8.0506 9.94693 7.875 9.51562 7.875Z" fill="#39558D"/>
<path d="M74.4844 7.875C74.0531 7.875 73.6295 8.0506 73.3244 8.35565C73.0193 8.66071 72.8438 9.08432 72.8438 9.51562C72.8438 9.94693 73.0193 10.3705 73.3244 10.6756C73.6295 10.9807 74.0531 11.1562 74.4844 11.1562C74.9157 11.1562 75.3393 10.9807 75.6443 10.6756C75.9494 10.3705 76.125 9.94693 76.125 9.51562C76.125 9.08432 75.9494 8.66071 75.6443 8.35565C75.3393 8.0506 74.9157 7.875 74.4844 7.875Z" fill="#39558D"/>
<path d="M42.1736 11.1562C42.6068 11.1562 43.0285 10.9807 43.3336 10.6756C43.6405 10.3705 43.8142 9.94693 43.8142 9.51562C43.8142 9.08432 43.6405 8.66071 43.3336 8.35565C43.0285 8.0506 42.6055 7.875 42.1736 7.875C41.7423 7.875 41.3193 8.0506 41.0136 8.35565C40.7086 8.66071 40.533 9.08432 40.533 9.51562C40.533 9.94693 40.7086 10.3705 41.0136 10.6756C41.3193 10.9807 41.7423 11.1562 42.1736 11.1562Z" fill="#39558D"/>
</svg>
