<svg width="81" height="89" viewBox="0 0 81 89" fill="none" xmlns="http://www.w3.org/2000/svg">
<path d="M10.3603 78.2485C10.2286 77.8289 9.84422 76.8858 9.73952 76.1895C9.50842 74.6473 10.3147 73.6317 11.0551 73.3991C11.886 73.1672 12.2106 73.5846 12.5322 74.5546C12.948 76.0317 12.9944 77.9673 12.8545 80.7382C12.6728 84.5234 10.7791 89.0945 6.07181 88.9996C2.00846 88.9106 0.210509 86.2787 0.0235336 82.2632C-0.0647188 80.3703 0.0706514 78.4781 0.854452 75.8021C1.27028 74.3691 1.64124 73.859 2.93137 73.5846C3.94553 73.3991 3.85428 74.4596 3.62468 75.7101C3.1191 78.4781 2.88426 79.8146 3.07123 82.955C3.25222 86.2787 4.77869 87.5718 6.44053 87.5718C8.93328 87.6197 10.0402 85.5428 10.5039 82.5392C10.8696 80.1399 10.5936 78.9859 10.3603 78.2485ZM63.5091 81.5265C64.4799 81.5265 64.7581 82.6746 64.5263 83.3701C64.2944 84.0612 63.465 84.8495 62.1734 85.0791C61.8952 84.385 61.756 81.5265 63.5091 81.5265ZM45.4653 83.0911C45.4653 82.3096 45.0472 81.6627 44.5438 81.6627C44.1235 81.6627 43.158 82.1226 43.158 83.6005C43.158 84.7582 43.5693 85.3072 43.7578 85.5428C45.0928 85.1254 45.4653 84.0148 45.4653 83.0911ZM31.1071 73.6766C31.042 72.9361 30.4616 72.4321 29.6763 72.4321C28.8005 72.4321 27.9756 73.3512 28.0631 74.506C28.1192 75.2673 28.5679 75.8933 29.4497 75.8933C30.4616 75.8941 31.1998 74.7401 31.1071 73.6766ZM38.6137 76.3877C38.5337 75.0968 38.2211 74.5142 37.5278 74.5621C36.6086 74.6174 36.1838 77.5096 36.3715 80.5498C36.4912 82.5332 36.7866 82.8391 37.0618 82.8197C37.5704 82.789 38.7902 79.2454 38.6137 76.3877ZM69.2336 81.2468C68.6614 83.6199 66.927 87.1111 64.3393 87.1111C63.7402 87.1111 62.6782 86.8785 62.6782 86.2787C62.6782 85.6318 66.743 85.5428 66.743 82.4479C66.743 81.2954 65.6818 79.6777 64.1112 79.6777C62.0343 79.6777 60.0082 81.9416 60.0082 85.0798C60.0082 87.8934 61.756 88.8171 63.5099 88.8171C66.5576 88.8171 68.4041 86.3228 69.3727 84.2474C69.8364 85.6325 70.1086 88.8171 71.2671 88.8171C71.7271 88.8171 72.0524 88.586 72.6066 87.3415C73.988 84.2466 75.3282 80.6926 77.1755 80.6926C77.8658 80.6926 77.4522 81.9416 79.1133 81.9416C79.8964 81.9416 80.4483 81.2954 80.4483 80.5535C80.4483 79.4907 79.4806 78.6628 78.005 78.6628C73.6649 78.6628 72.745 85.1718 72.0517 85.1718C70.8969 85.1718 71.2664 79.9552 70.4339 79.9552C69.695 79.9544 69.3323 80.8347 69.2336 81.2468ZM32.3082 86.785C33 86.785 34.1899 86.5607 35.1263 85.0611C34.5908 83.872 34.2086 81.4689 34.1555 80.5939C33.8803 76.1192 35.6042 71.91 37.4911 71.7933C38.8748 71.7096 39.9817 73.0192 40.1088 75.141C40.4491 80.7166 38.5921 83.044 37.6624 85.0521C37.8195 85.8307 39.1403 87.156 40.3863 87.156C40.8462 87.156 41.4027 86.9249 41.5425 86.7379C41.4498 86.4171 41.3555 86.002 41.3555 85.3999C41.3555 82.169 43.4332 79.4444 45.2342 79.4444C46.6649 79.4444 47.4958 81.3366 47.4958 82.5856C47.4958 84.0604 46.2483 85.263 44.4032 86.4171C44.7278 86.7379 45.3247 86.9713 45.8347 86.9713C48.4681 86.9713 49.8457 83.7852 50.8659 80.8759C51.0498 80.3209 51.3752 79.5379 52.0199 79.5379C53.1275 79.5379 53.5912 86.8314 55.4325 86.8314C56.2201 86.8314 56.8648 85.2144 56.8648 83.9714C56.8648 83.047 56.5417 82.9543 56.5417 81.6155C56.5417 80.1399 57.327 78.8947 58.3912 78.8947C59.0367 78.8947 59.27 79.5379 59.27 80.3209C59.27 83.2759 57.1437 88.77 54.0093 88.77C51.6512 88.77 51.8351 84.7074 51.005 84.7074C50.0776 84.7074 48.7852 88.8156 44.22 88.8156C43.4781 88.8156 42.695 88.4469 42.0503 87.7064C40.9442 88.4469 40.0183 88.77 38.9563 88.77C37.2503 88.77 36.5099 87.0154 35.8196 87.0154C34.9872 87.0154 34.0665 88.8156 31.294 88.8156C29.0787 88.8156 28.7093 85.8644 27.9262 85.8644C27.2322 85.8644 26.1709 88.8156 25.0176 88.8156C23.0761 88.8156 22.6647 83.6932 20.9535 83.6932C19.6156 83.6932 15.3862 88.8956 14.2381 88.7767C13.7767 88.7288 13.5822 88.384 13.6308 87.9218C13.6959 87.2831 14.2456 85.5734 14.4685 84.7649C14.8417 83.3611 15.1842 81.8227 15.3757 81.3321C15.5657 80.837 16.078 80.484 16.4893 80.5221C16.6965 80.5415 16.7586 80.9282 16.8229 81.2476C17.0562 82.3889 17.3816 83.5526 17.7488 83.5526C18.3972 83.5526 20.5385 79.4436 21.7845 79.4436C23.3102 79.4436 23.4927 85.9077 25.5688 85.9077C26.2629 85.9077 26.7722 85.0783 27.2322 84.0597C27.2793 82.3492 27.7408 79.9081 29.1251 79.9081C30.0951 79.9081 30.5573 82.0755 29.8625 83.9707C29.8611 86.2308 31.3367 86.785 32.3082 86.785Z" fill="#113F59"/>
<path d="M64.4583 14.4C64.1158 14.4 63.6252 14.4 63.3552 13.8623C63.1338 13.421 63.2086 12.7097 62.792 12.3919C63.2086 12.5138 63.6491 12.5138 63.9916 12.5138C65.0955 12.5138 66.1501 11.7547 66.9593 11.7547C67.4926 11.7547 67.6646 12.098 67.6646 12.4397C67.6653 13.519 65.4889 14.4 64.4583 14.4ZM64.9968 17.168C67.5419 17.168 69.8724 15.1352 69.8724 13.3477C69.8724 12.5138 69.479 11.8287 68.4745 11.7061C68.6458 11.9267 68.7191 12.098 68.7191 12.4899C68.7191 13.8376 66.6661 15.3319 64.4344 15.3319C63.6252 15.3319 63.3798 15.8943 63.3798 16.1882C63.3798 16.8748 64.0425 17.168 64.9968 17.168ZM64.8016 18.1971C65.121 20.5231 68.6458 23.659 69.6009 23.585C70.2396 23.5311 70.4842 20.5477 70.4842 18.1971C70.4842 16.8501 70.5582 15.7963 69.8469 15.551C68.7184 17.8299 65.7582 18.2951 64.8016 18.1971Z" fill="#113F59"/>
<path d="M9.67196 33.6032C10.5036 33.6032 10.3324 28.5077 11.6793 28.5077C11.9987 28.5077 12.0967 28.8263 12.0967 29.2182C12.0967 30.3692 11.5327 32.0603 11.5327 32.9899C11.5327 33.4558 11.6554 33.6032 11.876 33.6032C12.4646 33.6032 13.493 27.9932 14.4967 27.9932C14.8153 27.9932 14.9619 28.3118 14.9619 28.6304C14.9619 29.8061 13.4691 33.1858 13.4691 34.1409C13.4691 34.2882 13.5169 34.4102 13.6403 34.4102C14.2529 34.4102 15.4772 31.7656 15.8683 30.4433C16.089 29.7567 16.3829 29.3887 16.6529 29.3887C16.8974 29.3887 17.1188 29.6587 17.1188 30.2227C17.1188 31.5449 15.893 34.6555 14.8153 36.7384C13.9836 38.3546 12.6853 40.6798 12.6853 41.9782C12.6853 42.6401 12.8057 43.3251 13.7615 44.1583C12.1939 44.0603 11.5574 43.9137 10.9703 42.6894C8.34893 47.906 15.795 47.3922 13.2477 52.0195C12.7817 51.1886 9.10879 50.3307 9.10879 45.4813C9.10879 41.2931 12.7817 38.8437 12.7817 37.1056C12.7817 36.7631 12.6606 36.4691 12.342 36.1999C11.5327 35.5126 11.5081 34.9509 10.8716 34.9509C10.4071 34.9509 9.84174 36.0279 10.4303 36.9829C10.627 37.3015 10.7983 37.4975 10.7983 37.7914C10.7983 38.4765 9.71983 40.3126 8.96146 40.3126C8.20159 40.3126 7.61523 38.4294 7.61523 35.3907C7.61523 32.6952 8.22627 29.9781 8.98614 29.9781C9.20602 29.9781 9.27931 30.1247 9.27931 30.3214C9.27931 30.64 9.18209 31.2757 9.18209 32.3534C9.18209 33.5044 9.45133 33.6032 9.67196 33.6032Z" fill="#113F59"/>
<path d="M15.9156 40.7786C16.9454 40.7786 17.8018 40.0179 17.8018 38.3307V35.8312C17.8018 34.8761 17.8758 33.7991 18.513 33.0385C18.439 33.3579 18.439 33.7004 18.439 34.019C18.439 36.1259 19.614 37.5716 19.614 39.6036C19.614 40.362 19.3933 40.7793 18.807 40.7793C18.2431 40.7793 18.2924 40.2648 18.169 40.2648C18.0718 40.2648 17.9244 40.5826 17.9244 40.9259C17.9244 41.4405 18.2917 42.2482 19.32 42.2482C20.2026 42.2482 20.9116 41.4405 20.9116 40.534C20.9116 38.3314 19.1974 35.8806 19.1974 33.5299C19.1974 32.5008 19.4666 31.8157 19.6872 31.2757C19.6872 36.1506 23.8261 39.7016 23.8261 41.7336C23.8261 42.1996 23.4836 42.5675 22.969 42.5675C22.4059 42.5675 22.1359 42.1255 22.1359 41.7822C22.1359 41.611 22.1112 41.5624 22.0379 41.5624C21.8921 41.5624 21.4508 42.0522 21.4508 42.6902C21.4508 43.4972 22.1112 44.4784 23.3363 44.4784C24.7311 44.4784 25.491 43.3012 25.491 42.2482C25.491 39.6777 20.4703 35.7826 20.4703 31.6198C20.4703 30.9085 20.5915 29.7575 21.1075 28.8765C17.8743 30.9571 16.8707 33.7259 16.8707 36.1505C16.8707 38.2574 16.7974 39.3089 15.7196 39.3089C15.1557 39.3089 15.0091 38.7959 14.8124 38.7959C14.6658 38.7959 14.5918 39.2364 14.5918 39.3583C14.5933 40.264 15.2552 40.7786 15.9156 40.7786Z" fill="#113F59"/>
<path d="M53.0223 13.2004C53.3335 12.9917 54.7141 13.3223 56.4993 12.4398C56.7192 12.3194 56.9398 12.27 57.1358 12.27C57.9944 12.27 57.7738 13.249 58.5583 13.249C59.1693 13.249 59.9554 12.7345 60.4213 12.7345C61.1513 12.7345 62.2051 15.0373 62.2051 16.115C62.2051 17.364 60.3226 18.1238 58.0924 18.1238C54.8367 18.1238 52.875 15.2826 52.875 13.445C52.8757 13.2984 52.9498 13.249 53.0223 13.2004ZM58.3624 16.3109C59.4408 16.3109 60.2493 15.8211 60.2493 15.5264C60.2493 15.4299 60.1027 15.3559 59.7834 15.3559C59.4648 15.3559 58.8275 15.3319 57.6264 15.1352C56.5958 14.964 55.812 14.5721 55.5181 14.5721C55.4201 14.5721 55.3708 14.6207 55.3708 14.694C55.3708 15.3319 56.5479 16.3109 58.3624 16.3109Z" fill="#113F59"/>
<path d="M16.4311 50.0121C15.6233 50.2088 14.3242 51.4803 14.3242 53.4914C14.3242 55.8899 16.8963 59.5898 21.1331 59.5898C24.7081 59.5898 25.5906 57.1157 25.5906 55.4486C25.5906 51.751 23.314 49.1543 20.3508 49.1543C18.7338 49.1543 17.2882 50.33 17.2882 52.0681C17.2882 53.6866 18.5132 56.1105 21.427 56.1105C22.7987 56.1105 23.6064 55.1293 23.6064 54.0059C23.6064 52.9028 22.6027 51.3853 21.1324 51.3853C20.6918 51.3853 20.374 51.6762 20.374 52.1437C20.374 52.73 21.181 53.3194 22.1862 53.3194C22.43 53.3194 22.6267 53.27 22.7254 53.2206C22.7733 53.2962 22.7987 53.4173 22.7987 53.5153C22.7987 54.0792 22.2594 54.4225 21.427 54.4225C20.178 54.4225 18.9777 53.4921 18.9777 52.0195C18.9777 51.14 19.7375 50.5035 20.8392 50.5035C23.0186 50.5035 24.3162 52.4376 24.3162 54.3739C24.3162 56.1113 23.3626 57.1172 21.4024 57.1172C17.4834 57.1165 15.5747 53.5886 16.4311 50.0121Z" fill="#113F59"/>
<path d="M44.3887 64.3629C45.5636 64.3629 45.5023 64.2649 45.8702 64.2649C46.2367 64.2649 46.2621 64.4855 46.2621 64.6329C46.2621 65.1721 45.061 65.8333 42.9302 65.8333C41.6812 65.8333 40.9214 65.1714 40.7015 64.4369C39.4772 65.2207 37.6164 65.9312 35.7788 65.9312C30.7589 65.9312 29.4852 63.7496 27.9169 63.0414C26.7165 62.5021 24.8796 63.5559 22.3076 60.69C22.6509 60.764 23.1168 60.7879 23.4841 60.7879C25.736 60.7879 26.9364 59.6878 26.9364 57.9227C26.9364 57.7013 26.9117 57.459 26.887 57.2391C27.5736 57.5084 29.1419 58.6826 29.5099 60.764C29.5578 61.0093 30.5615 61.2292 31.1987 61.2292C32.0812 61.2292 33.2075 60.8612 33.3788 59.4178C36.318 59.1732 38.303 57.4351 38.7196 55.228C39.7711 55.5713 40.9715 56.5264 41.2654 57.0178C41.682 56.8712 42.1711 56.7971 42.7343 56.7971C43.5181 56.7971 44.4006 56.9445 45.4529 57.2631C45.5023 56.9445 45.5509 56.5526 46.0415 56.5526C46.7759 56.5526 46.58 57.361 46.8253 57.824C46.948 58.0693 47.5612 58.2159 47.5612 58.7065C47.5612 59.1732 47.1671 59.3452 46.9225 59.3452C46.8246 59.3452 46.7019 59.3205 46.6279 59.2966C46.1387 59.4679 46.1133 62.9927 44.0566 62.9927C42.5391 62.9927 41.1428 61.7437 40.5295 60.1776C40.3582 59.7124 39.991 59.4178 39.6477 59.4178C39.2566 59.4178 39.0359 59.4918 38.5715 60.0064C37.2492 61.4498 35.0444 62.6988 32.3258 62.6988C31.4926 62.6988 30.8314 62.624 30.6594 62.624C30.5607 62.624 30.5607 62.6487 30.5607 62.6726C30.5607 62.8446 31.3931 63.5065 33.206 63.5065C37.5169 63.5065 38.5707 61.0811 39.2558 61.0811C39.3553 61.0811 39.647 61.0811 39.8182 61.4737C40.8242 63.8237 43.017 64.3629 44.3887 64.3629ZM42.4897 59.4679C42.4897 60.0071 42.931 60.4484 43.4702 60.4484C44.0095 60.4484 44.45 60.0071 44.45 59.4679C44.45 58.9279 44.0095 58.4866 43.4702 58.4866C42.931 58.4866 42.4897 58.9279 42.4897 59.4679Z" fill="#113F59"/>
<path d="M61.8876 47.2442C61.5443 47.2442 61.1771 47.5142 61.1771 48.1768C61.1771 48.909 61.741 49.3757 62.0589 49.5216C62.2309 49.621 62.5009 49.719 62.7679 49.719C63.4792 49.719 64.0438 49.5216 64.0438 48.933C64.0431 48.1768 62.9392 47.2442 61.8876 47.2442ZM59.2453 48.7617C58.7307 48.7617 55.8857 52.5581 54.0526 52.5581C53.6121 52.5581 53.2441 51.7256 53.2441 51.0914C53.2441 50.7481 53.464 50.5028 54.2501 50.3301C58.4615 49.375 57.5296 46.2144 61.127 46.2144C63.1105 46.2144 65.3183 47.5636 65.3183 50.5993C65.3183 53.8325 60.7164 57.848 60.0298 57.848C59.4659 57.848 58.8534 57.0402 58.8534 56.5017C58.8534 56.3305 58.9274 56.1098 59.4173 55.9139C61.7657 54.982 63.1112 52.8273 63.1112 51.7241C63.1112 51.4788 62.9893 51.2365 62.6707 51.2365C62.2549 51.2365 60.4719 55.3006 58.4854 55.3006C57.1115 55.3006 55.7145 54.0546 55.7145 53.4653C55.7145 52.484 59.6866 50.6733 59.6866 49.3002C59.6858 48.7849 59.4413 48.7617 59.2453 48.7617Z" fill="#113F59"/>
<path d="M10.773 16.6544C10.773 16.6544 10.0633 17.1921 9.1815 17.1921C8.1292 17.1921 7.29604 16.4091 7.29604 15.3067C7.29604 14.5468 7.68794 13.7638 8.59365 13.3711C8.56972 13.5184 8.56972 13.6403 8.56972 13.7877C8.56897 15.1848 9.35277 16.2371 10.773 16.6544ZM16.0143 21.3572C15.4758 21.9929 14.9119 23.0714 14.9119 24.173C14.9119 25.4953 15.7211 26.597 16.9701 26.597C18.1698 26.597 18.7337 25.5686 18.7337 24.5163C18.7337 22.8754 17.2394 21.7229 16.0143 21.3572ZM7.88389 22.3362C7.83752 22.4117 7.80985 22.5082 7.80985 22.6062C7.80985 22.8268 8.05516 23.0714 8.27429 23.0714C8.47024 23.0714 8.5929 23.0228 8.69088 23.0228C9.27798 23.0228 9.93987 23.4386 10.8949 23.4386C11.4574 23.4386 12.1193 23.2666 12.9517 22.8515C14.7152 21.969 15.4018 19.7896 15.4018 19.4216C15.4018 18.9557 15.0278 19.017 14.7152 18.5885C14.4026 18.1614 14.5223 17.7837 14.3233 17.584C14.2104 17.4696 13.8589 17.4621 13.4169 17.4128C13.2695 17.3971 13.0736 17.3881 12.8776 17.3881C12.0706 17.3881 11.1126 17.4876 10.0371 18.1726C7.91306 19.5286 8.22568 21.773 7.88389 22.3362ZM13.639 19.299C13.8088 19.5301 14.2769 19.8143 14.2769 19.9855C14.2769 20.3273 14.0795 20.7693 13.6884 20.7693C12.8305 20.7693 12.1454 19.471 12.1454 18.7351C12.1454 18.2706 12.4154 18.222 12.7819 18.222C12.9532 18.222 13.0272 18.2467 13.1491 18.32C13.369 18.4426 13.369 18.9317 13.639 19.299ZM11.3848 22.2876C10.5771 22.2876 9.69531 21.2839 9.69531 20.3767C9.69531 19.8876 10.0625 19.2743 10.3318 19.2743C10.4297 19.2743 10.4791 19.3483 10.503 19.5203C10.6496 20.72 11.4342 21.4066 12.1694 21.7483C12.2427 21.797 12.292 21.8216 12.292 21.8703C12.292 22.0423 11.8261 22.2876 11.3848 22.2876ZM13.4677 16.1152C13.5896 15.7225 13.6876 15.2341 13.6876 14.6941C13.6876 13.5192 13.1476 11.731 11.4828 11.731C10.5285 11.731 9.84115 12.4901 9.84115 13.3965C9.84115 15.3321 11.7767 16.1152 13.4677 16.1152ZM7.12402 25.9119C7.12402 27.7727 7.68794 28.6552 8.69162 28.6552C9.47542 28.6552 10.5285 28.0913 11.7767 27.0136C10.8224 27.2342 10.0865 27.3815 9.42606 27.3815C8.54429 27.3815 7.85921 27.0382 7.12402 25.9119ZM7.98187 23.7318C7.95793 23.8552 7.95793 23.9771 7.95793 24.099C7.95793 25.25 8.56897 25.8872 9.37745 25.8872C9.98774 25.8872 10.6997 25.52 11.3347 24.7108C11.067 24.7594 10.7476 24.7841 10.4537 24.7841C9.54872 24.7841 8.56897 24.5403 7.98187 23.7318ZM13.9823 23.3892C13.4176 23.5358 12.2427 24.2217 12.2427 25.446C12.2427 26.327 12.9277 26.8917 13.7856 26.8917C14.2268 26.8917 14.5447 26.7929 14.7406 26.6463C14.0556 25.9852 13.8103 25.25 13.8103 24.5163C13.8103 24.001 13.8836 23.6832 13.9823 23.3892ZM14.8633 16.6783C14.8633 17.2168 15.3038 17.6588 15.8423 17.6588C16.3815 17.6588 16.8228 17.2176 16.8228 16.6783C16.8228 16.1398 16.3815 15.6978 15.8423 15.6978C15.3038 15.6978 14.8633 16.1398 14.8633 16.6783ZM16.1362 18.8824C16.1362 19.4216 16.5782 19.8629 17.1182 19.8629C17.656 19.8629 18.0972 19.4216 18.0972 18.8824C18.0972 18.3446 17.656 17.9034 17.1182 17.9034C16.5775 17.9034 16.1362 18.3446 16.1362 18.8824Z" fill="#113F59"/>
<path d="M54.347 30.9077C54.347 30.4185 54.7883 30.002 55.2722 30.002C55.8122 30.002 56.2288 30.4185 56.2288 30.9077C56.2288 31.4708 55.8114 31.8635 55.2722 31.8635C54.7883 31.8635 54.347 31.4708 54.347 30.9077ZM45.7477 23.3643C45.7477 23.9028 46.1897 24.3441 46.7267 24.3441C47.2674 24.3441 47.7087 23.9028 47.7087 23.3643C47.7087 22.8266 47.2667 22.3853 46.7267 22.3853C46.1897 22.3853 45.7477 22.8266 45.7477 23.3643ZM44.916 26.8174C44.916 27.5773 45.551 28.213 46.3116 28.213C47.07 28.213 47.7087 27.5773 47.7087 26.8174C47.7087 26.059 47.07 25.4211 46.3116 25.4211C45.551 25.4211 44.916 26.059 44.916 26.8174ZM48.0026 25.2498C48.0026 26.0837 48.6645 26.7441 49.4924 26.7441C50.3248 26.7441 50.989 26.0837 50.989 25.2498C50.989 24.4174 50.3248 23.7562 49.4924 23.7562C48.6645 23.7562 48.0026 24.4174 48.0026 25.2498ZM48.126 22.066C48.126 22.5813 48.5426 22.9986 49.0519 22.9986C49.5665 22.9986 49.983 22.5813 49.983 22.066C49.983 21.5529 49.5657 21.1363 49.0519 21.1363C48.5426 21.1363 48.126 21.5529 48.126 22.066ZM52.5573 19.7161C52.5573 20.2291 52.9739 20.6457 53.4892 20.6457C54.0038 20.6457 54.4211 20.2291 54.4211 19.7161C54.4211 19.2008 54.0038 18.7842 53.4892 18.7842C52.9739 18.7842 52.5573 19.2008 52.5573 19.7161ZM50.719 22.7286C50.719 23.585 51.4295 24.2947 52.2873 24.2947C53.1459 24.2947 53.8572 23.585 53.8572 22.7286C53.8572 21.87 53.1467 21.161 52.2873 21.161C51.4295 21.161 50.719 21.87 50.719 22.7286ZM48.1986 28.459C48.1986 28.9983 48.6398 29.438 49.1746 29.438C49.7138 29.438 50.1558 28.9983 50.1558 28.459C50.1558 27.9198 49.7138 27.4793 49.1746 27.4793C48.6398 27.4793 48.1986 27.9198 48.1986 28.459ZM51.4056 26.4988C51.4056 27.038 51.8461 27.4793 52.3868 27.4793C52.9253 27.4793 53.3666 27.038 53.3666 26.4988C53.3666 25.961 52.9253 25.5198 52.3868 25.5198C51.8461 25.5198 51.4056 25.961 51.4056 26.4988ZM50.4991 29.9526C50.4991 30.883 51.2582 31.6428 52.1901 31.6428C53.1212 31.6428 53.8826 30.883 53.8826 29.9526C53.8826 29.0222 53.1212 28.2623 52.1901 28.2623C51.2582 28.2623 50.4991 29.0222 50.4991 29.9526ZM54.0277 27.8697C54.0277 28.5076 54.543 29.0222 55.1757 29.0222C55.8129 29.0222 56.3275 28.5076 56.3275 27.8697C56.3275 27.234 55.8129 26.7194 55.1757 26.7194C54.543 26.7194 54.0277 27.234 54.0277 27.8697ZM53.9544 24.7838C53.9544 25.3485 54.4211 25.8137 54.9783 25.8137C55.5429 25.8137 56.0089 25.3485 56.0089 24.7838C56.0089 24.2214 55.5429 23.7562 54.9783 23.7562C54.4211 23.7562 53.9544 24.2214 53.9544 24.7838Z" fill="#113F59"/>
<path d="M56.4493 56.9197C55.8121 57.4104 54.3222 58.5105 51.8459 58.5105C50.5229 58.5105 49.9343 58.094 49.7384 58.094C49.493 58.094 49.2238 58.3385 48.9538 58.6579C48.3719 59.3444 47.6113 60.6181 47.6113 62.013C47.6113 62.992 48.3719 63.9702 49.787 63.9702C54.3716 63.9702 57.7977 61.1058 57.7977 58.7805C57.7977 57.459 57.0139 56.9197 56.4493 56.9197ZM55.1756 56.6505C55.3738 56.4815 55.4202 56.21 55.4202 55.9392V55.3761C55.4202 54.6648 54.3469 54.2505 52.8758 54.2505C51.0861 54.2505 50.1303 55.0567 50.1303 55.4008V56.5271C50.1303 56.9938 51.2095 57.459 52.5333 57.459C53.5871 57.459 54.5429 57.1897 55.1756 56.6505ZM54.9782 59.0752C55.1016 59.0752 55.2474 59.1477 55.2474 59.5898C55.2474 60.1275 55.0036 60.8373 54.1255 61.3997C53.513 61.8178 52.6791 62.161 51.454 62.1827C51.65 61.5971 51.7973 60.9831 51.7973 60.3982C51.7973 60.2015 51.7734 60.0542 51.7487 59.8343H52.0673C54.0036 59.8351 54.8376 59.0752 54.9782 59.0752Z" fill="#113F59"/>
<path d="M45.6253 29.1458C45.8945 31.2264 48.6894 30.1734 48.6894 32.6953C48.6894 33.0633 48.5914 33.6032 48.5914 34.0677C48.5914 34.6069 48.6393 35.0721 49.0521 35.0721C49.468 35.0721 49.5667 34.7789 49.5667 34.3863C49.5667 33.9936 49.468 33.5045 49.468 33.2353C49.468 32.3774 50.0813 32.1822 50.45 32.1822C51.3811 32.1822 52.0916 33.1373 53.4894 33.1373C53.1701 34.7049 49.9347 34.2883 49.9347 36.0033C49.9347 36.8611 50.7925 37.0556 51.3564 37.0556C51.871 37.0556 52.043 36.9823 52.043 36.5425C52.043 36.2964 51.9936 36.0272 51.9936 35.8559C51.9936 35.7572 52.0677 35.6592 52.1903 35.6592C52.7311 35.6592 55.3712 37.6681 55.3712 38.2814C55.3712 38.8438 52.5822 39.407 51.7737 39.407C51.5284 39.407 51.4791 39.2357 51.4791 39.1377C51.4791 38.9664 51.8957 38.4519 51.8957 38.1587C51.8957 37.9381 51.5284 37.7907 50.5472 37.7907C50.0812 37.7907 49.738 37.8401 49.738 38.2081C49.738 38.8677 50.8164 39.6769 50.8164 40.288C50.8164 40.7786 50.5225 41.0725 49.738 41.0725C49.0761 41.0725 48.0754 40.5572 48.0754 39.7009C48.0754 39.0151 48.7821 38.3307 48.7821 37.9134C48.7821 37.7907 48.6887 37.5948 48.3947 37.5948C47.4868 37.5948 47.2422 39.9941 44.0322 40.264C44.5468 39.7989 44.9865 39.2843 44.9865 38.2327C44.9865 37.7182 44.8654 37.3009 44.8654 36.7384C44.8654 36.0033 45.2072 35.6353 45.6971 35.6353C46.6028 35.6353 47.044 36.9082 47.6341 36.9082C47.9535 36.9082 48.296 36.6158 48.296 36.1745C48.296 34.313 44.7188 34.5822 44.7188 31.9616C44.7195 31.2511 44.9634 30.3693 45.6253 29.1458ZM57.3075 36.3219C57.3075 36.9329 57.5049 37.6434 58.1174 37.6434C58.632 37.6434 59.0725 36.8611 59.0725 36.0033C59.0725 35.0235 58.9013 34.2636 58.9013 33.871C58.9013 33.7005 58.9753 33.6272 59.0725 33.6272C59.4405 33.6519 59.783 34.6555 60.1764 34.6555C60.6177 34.6555 61.2751 33.8463 61.5436 33.8463C61.6176 33.8463 61.6416 33.945 61.6416 33.969C61.6416 34.3369 61.0776 35.1462 61.0776 35.464C61.0776 35.7333 62.4994 35.7819 62.4994 36.0272C62.4994 36.3952 61.0088 36.3952 60.2991 36.7138C59.6133 37.0069 59.1944 37.3742 59.1944 37.8648C59.1944 38.3547 59.6851 38.4519 60.3716 38.4519C62.008 38.4519 63.1598 37.5709 63.527 37.5709C63.6003 37.5709 63.6489 37.6187 63.6489 37.6928C63.6489 37.9381 62.8165 38.7458 62.8165 39.1138C62.8165 39.5296 64.3362 40.018 64.3116 40.264C64.2876 40.3373 64.1889 40.3613 64.0176 40.3613C63.7469 40.3613 63.3311 40.288 63.0117 40.288C62.8158 40.288 62.6445 40.3119 62.5697 40.4099C62.3999 40.6066 62.6191 41.9049 62.278 41.9049C61.9587 41.9049 61.1255 39.0151 59.2438 39.0151C58.9738 39.0151 58.7778 39.2357 58.7778 39.6029C58.7778 40.5819 59.7337 41.7082 60.6409 42.2475C61.0515 42.5175 61.7388 42.7867 61.7388 42.9348C61.7388 43.2272 60.1749 42.9587 60.1749 43.4479C60.1749 43.8891 60.3709 44.5518 60.3709 44.9422C60.3709 45.0648 60.3462 45.2107 60.1996 45.2107C59.9057 45.2107 59.1937 43.8644 58.8511 43.8644C58.5572 43.8644 57.92 44.6722 57.65 44.6722C57.5767 44.6722 57.5281 44.5989 57.5281 44.5263C57.5281 43.9624 58.4353 42.6895 58.4353 41.4398C58.4353 40.8519 58.3613 39.5782 57.65 39.5782C57.0622 39.5782 56.3995 40.5086 56.1056 41.4398C55.9351 41.9782 56.057 44.0604 55.6643 44.0604C55.2971 44.0604 55.3951 42.6648 54.9037 42.6648C54.5425 42.6648 53.7579 43.3252 53.4879 43.3252C53.4386 43.3252 53.3892 43.3005 53.3892 43.2519C53.3892 42.9587 54.1005 42.0029 54.1005 41.807C54.1005 41.4397 52.4828 41.3911 52.4828 41.0972C52.4828 40.9252 53.12 40.8033 53.7078 40.7046C54.9538 40.4839 56.7914 39.5782 56.7914 38.3053C56.7914 36.885 55.419 36.2718 54.5171 35.6839C54.0511 35.39 53.5366 35.1462 53.5366 34.9502C53.5366 34.7535 54.1244 34.7535 54.3697 34.7535C54.7369 34.7535 55.1004 34.7288 55.1004 34.4357C55.1004 34.2143 55.0511 33.7745 55.0511 33.4312C55.0511 33.1859 55.075 32.99 55.1745 32.99C55.5417 32.99 56.0562 34.1896 56.3023 34.1896C56.6934 34.1896 57.2327 33.2098 57.6014 33.2098C57.7226 33.2098 57.7727 33.2839 57.7727 33.5038C57.7742 34.4102 57.3075 35.4386 57.3075 36.3219Z" fill="#113F59"/>
<path d="M46.3368 43.1044C47.4646 43.2517 47.7346 43.6429 47.7346 43.9622C47.7346 44.5015 47.244 44.672 46.7773 44.672C46.4355 44.672 46.0429 44.5987 45.6263 44.5987C45.0863 44.5987 44.5486 44.7214 44.108 45.2359C44.4259 45.2845 44.8918 45.5059 44.8918 45.9965C44.8918 47.4168 40.9489 46.2396 40.9489 49.8909C40.9489 51.8249 42.9578 53.9325 45.9935 53.9325C47.5633 53.9325 48.5678 53.418 48.5678 52.8286C48.5678 52.3642 47.7354 52.6813 47.7354 52.2894C47.7354 52.1181 48.0293 51.7988 48.0293 51.528C48.0293 51.4099 47.9313 51.1877 47.7354 51.1877C47.2926 51.1877 46.4594 51.896 44.7692 51.896C43.4461 51.896 42.1478 51.1391 42.1478 50.1092C42.1478 49.8894 42.2465 49.766 42.3931 49.766C42.5404 49.766 42.7356 49.8647 42.9077 49.8647C43.055 49.8647 43.0789 49.766 43.0789 49.4975C43.0789 49.2275 43.0789 48.4676 43.5434 48.4676C44.0101 48.4676 44.8918 50.1825 48.2738 50.1825C49.3964 50.1825 51.5781 49.9634 52.3873 49.2275C52.3626 51.9222 50.2535 55.4732 45.8469 55.4732C41.2668 55.4732 38.8174 51.7988 38.8174 48.4182C38.8174 44.672 41.8778 41.2683 46.0675 41.2683C47.1438 41.2683 48.0525 41.6348 48.0525 42.1007C48.0517 42.7387 46.4587 42.346 46.3368 43.1044ZM53.8569 44.4043C54.0282 44.672 54.1022 44.942 54.1022 45.1866C54.1022 45.8731 53.6363 46.5096 53.6363 47.2209C53.6363 48.0286 54.2496 48.689 55.1762 48.689C56.1807 48.689 56.8672 47.8827 56.8672 46.9262C56.8672 45.6278 55.6908 44.5262 53.8569 44.4043ZM45.7482 45.9711C45.992 46.2149 46.0668 46.4602 46.0668 46.7056C46.0668 47.0728 45.8955 47.4654 45.8955 47.882C45.8955 48.4676 46.3368 48.9829 46.9725 48.9829C47.6598 48.9829 48.1265 48.4429 48.1265 47.8087C48.1265 46.8776 47.1677 45.9711 45.7482 45.9711ZM49.0038 41.8068C51.5773 42.2967 52.9744 44.2322 52.9744 46.0452C52.9744 47.2949 52.1906 48.4437 50.8175 48.4437C49.567 48.4437 48.665 47.5873 48.665 46.2157C48.665 45.1873 49.4682 44.1096 49.4682 43.0558C49.4682 42.64 49.3463 42.2234 49.0038 41.8068ZM50.2782 45.0647C50.2782 45.4072 50.5235 45.6772 50.8668 45.6772C51.258 45.6772 51.504 45.3339 51.504 44.942C51.504 44.4282 51.0381 43.7177 50.5968 43.7177C50.4001 43.7177 50.4742 44.0116 50.4256 44.3302C50.4001 44.574 50.2782 44.868 50.2782 45.0647Z" fill="#113F59"/>
<path d="M23.2409 19.8628C24.0733 19.8628 25.0276 15.356 25.0276 14.5961C25.0276 14.4001 24.9551 14.2528 24.7838 14.2528C24.0239 14.2528 22.9716 18.5398 22.9716 19.4956C22.9709 19.6669 23.0195 19.8628 23.2409 19.8628ZM29.2413 21.2098C29.8523 21.2098 30.5381 18.8576 30.5381 17.388C30.5381 17.0694 30.4895 16.7276 30.3414 16.7276C29.8269 16.7276 28.9698 19.1523 28.9698 20.4746C28.9705 20.9892 29.094 21.2098 29.2413 21.2098ZM25.2467 19.0297C25.516 19.0297 25.8593 18.7342 26.498 18.026C26.5459 17.7074 26.5459 17.4127 26.5459 17.0455C26.5459 16.5563 26.3499 16.0171 26.0567 16.0171C25.3208 16.0171 24.9543 17.9766 24.9543 18.4919C24.9551 18.7843 25.1009 19.0297 25.2467 19.0297ZM28.6033 18.026C28.6033 17.6086 28.5046 17.5107 28.4074 17.5107C28.1621 17.5107 27.8936 17.8053 27.5017 18.4665C27.5503 19.3483 27.6976 19.7402 27.9422 19.7402C28.2114 19.7402 28.6033 18.8823 28.6033 18.026ZM30.4895 15.1353C32.1065 15.1353 32.8402 16.5317 32.8402 18.0993C32.8402 18.7843 32.6457 19.7895 32.3271 19.7895C32.0085 19.7895 32.0579 19.2256 32.0085 18.7111C31.9599 18.0499 31.8365 17.9033 31.6159 17.9033C31.1993 17.9033 30.9308 18.8823 30.9308 19.7895C30.9308 20.3519 31.0288 20.9892 31.4685 20.9892C31.7138 20.9892 31.9345 20.8665 32.0818 20.7199C31.9838 21.8455 31.1499 22.8268 29.975 22.8268C27.8195 22.8268 27.011 20.3033 26.7672 18.8337C25.4689 20.2054 24.2692 21.2098 22.113 21.2098C20.1057 21.2098 19.1992 19.7402 19.1992 18.3446C19.1992 17.9273 19.3458 16.8503 19.8611 16.8503C20.4729 16.8503 19.9344 18.8576 21.134 18.8576C21.4287 18.8576 21.9657 18.6123 22.2611 17.8053C22.4324 17.3147 22.5304 16.8017 22.5304 16.3596C22.5304 15.6978 22.3838 15.2827 21.8939 15.2827C21.4766 15.2827 20.962 15.5998 20.7908 15.7718C21.3793 14.0082 22.7996 13.1025 24.365 13.1025C26.302 13.1025 27.3297 14.8167 27.3297 16.7276C27.3297 16.9961 27.305 17.29 27.2556 17.56C28.0888 16.1884 29.2413 15.1353 30.4895 15.1353Z" fill="#113F59"/>
<path d="M25.9097 21.7227C24.8567 21.7227 24.8081 22.9986 24.8081 25.5684C24.0235 23.8789 22.7267 22.0659 21.2077 22.0659C20.1793 22.0659 19.7882 22.7525 19.7882 23.9514C19.7882 24.1967 19.8121 24.5647 19.8615 24.7838C19.9841 24.3687 20.376 24.1967 20.8651 24.1967C21.9197 24.1967 23.1926 25.0044 24.025 26.1076C23.0707 25.9363 22.1396 25.7643 21.3565 25.7643C20.8659 25.7643 20.4254 25.8137 20.0582 25.9849C19.3476 26.3028 18.3926 27.3566 18.3926 28.9489C18.3926 29.1942 18.4173 29.4627 18.4666 29.7566C19.3237 27.8457 21.6011 26.9886 23.0707 26.9886C23.3654 26.9886 23.5845 27.0133 23.7565 27.038C22.9967 27.7231 22.8261 28.9234 22.776 29.7319C22.7528 30.1238 22.6048 30.1493 22.3348 30.1493C22.3348 30.9562 22.9727 32.1574 22.9727 32.7692C22.9727 32.9898 22.8501 33.1857 22.7282 33.2351C22.7282 34.3128 23.8044 35.0966 23.8044 35.7817C23.8044 35.953 23.7565 36.1003 23.6817 36.1744C23.7565 36.6156 24.9412 37.3568 25.0945 37.7285C25.283 38.1802 25.4946 38.2565 25.6173 38.2565C26.0339 38.2565 26.6935 37.7659 26.6935 37.3246C26.6935 37.178 26.5709 37.0068 26.4744 36.9327C26.0085 36.5909 25.7631 35.8557 25.5672 35.3666C25.3952 35.3666 25.1738 35.2941 25.096 35.0054C24.9621 34.4983 24.9554 33.5537 24.7595 32.9898C24.4409 32.9165 24.2935 32.7938 24.2935 32.1327C24.2935 31.8141 24.4902 30.5643 24.4902 30.1231C24.3436 30.1231 24.1477 30.0251 24.1477 29.7312C24.1477 28.9481 24.9322 28.3356 25.1514 27.3319C26.5477 28.3595 26.8895 29.4126 26.8895 30.3445C26.8895 30.8328 26.8162 31.2988 26.7182 31.7408C27.7473 31.2255 29.2902 30.4664 29.2902 28.9234C29.2902 28.0162 28.8737 27.0126 26.1057 26.6207C26.9628 26.3021 28.0413 26.1315 28.947 26.1315C30.5153 26.1315 31.421 26.6207 31.6162 27.7223C31.9348 27.2332 32.1801 26.6693 32.1801 26.1555C32.1801 24.9543 31.175 24.172 29.902 24.172C28.4077 24.172 27.0854 24.9543 25.6644 25.9109C26.3031 24.5886 26.7414 23.8048 27.5267 23.8048C27.6486 23.8048 27.7713 23.8295 27.8939 23.8542C27.6 22.7772 26.4983 21.7227 25.9097 21.7227Z" fill="#113F59"/>
<path d="M67.1753 39.3823C68.4018 39.3823 69.3816 40.9739 69.3816 42.8361C69.3816 44.8196 68.4497 46.9758 66.7886 48.4439C66.7639 45.1382 62.7178 46.1912 62.7178 43.7919C62.7178 42.7636 63.4545 42.077 64.337 42.077C65.1215 42.077 65.7341 42.2976 66.1753 42.7397C65.7341 42.3223 65.5134 41.7337 65.5134 41.1713C65.5134 40.2387 66.102 39.3823 67.1753 39.3823Z" fill="#113F59"/>
<path d="M45.3064 16.1152C45.9443 16.7277 46.506 16.9962 47.1926 16.9962C47.4633 16.9962 47.7827 16.9236 47.9547 16.9236C48.1753 16.9236 48.3212 17.0209 48.3212 17.1921C48.3212 17.4621 48.0759 17.9034 47.7827 18.1487C48.0759 18.2706 48.3952 18.32 48.7385 18.32C50.1296 18.32 51.7226 17.4374 51.7226 15.2341C52.018 15.6245 52.1893 16.4338 52.1893 16.8017C52.1893 19.471 50.2276 20.4993 48.4191 20.4993C47.2427 20.4993 46.6534 20.1067 46.5053 20.1067C46.0408 20.1067 46.0655 21.0386 45.7469 21.0139C45.183 20.9159 44.6699 19.6669 44.6699 18.3446C44.6707 17.5601 44.8666 16.7277 45.3064 16.1152ZM49.0033 14.3269C48.8073 14.0083 48.0759 13.8378 47.7341 13.8378C46.6541 13.8378 45.9189 14.5962 45.7723 15.2827C45.6744 15.0374 45.6011 14.7435 45.6011 14.4496C45.6011 13.3718 46.3362 12.0496 48.1267 12.0496C49.6898 12.0496 50.3024 12.882 50.5237 12.882C50.7683 12.882 51.0136 12.6367 51.2103 12.6367C51.4796 12.6367 51.4796 13.0532 51.4796 13.3479C51.4796 14.3269 51.0376 16.0172 49.9351 16.6297C49.7384 16.2131 49.3465 15.7472 48.7138 15.454C48.5426 15.3807 48.4693 15.2341 48.4693 15.0868C48.4685 14.8168 48.7131 14.4735 49.0033 14.3269Z" fill="#113F59"/>
<path d="M28.2843 8.98751C28.2843 9.8446 31.3454 14.0328 31.934 14.0328C32.4247 14.0328 32.7911 13.1758 32.7911 12.4398C32.7911 12.2454 32.7418 12.0502 32.6453 11.9021C32.204 11.2895 29.0935 8.84017 28.4069 8.84017C28.3329 8.84017 28.2843 8.91421 28.2843 8.98751ZM10.2823 6.46484C10.2823 6.95546 8.42151 8.5956 7.76112 8.5956C7.51655 8.5956 7.44176 8.30243 7.44176 8.03318C7.44176 7.54406 7.66239 6.85748 7.93239 6.6361C8.2495 6.34218 8.98468 6.19709 9.54785 6.19709C9.89039 6.19709 10.2823 6.26888 10.2823 6.46484ZM32.6453 7.88585C32.6453 6.41547 28.6717 3.74621 28.6276 2.59594C28.6231 2.49049 28.6807 2.38578 28.7697 2.29229C29.4503 1.57431 32.2766 1.05078 32.2766 0.438995C32.2766 0.121885 31.688 0.121885 31.394 0.121885C29.1167 0.121885 25.7855 0.954299 25.7855 1.76203C25.7855 2.59594 28.7734 4.62874 28.7734 5.63317C28.7734 5.90241 28.6021 6.00039 28.3321 6.00039C27.5005 6.00039 25.6876 4.99521 24.8305 4.99521C24.4386 4.99521 24.2905 5.26445 24.2905 5.65785C24.2905 6.8328 25.6868 9.06155 25.6868 9.7212C25.6868 9.79524 25.6621 9.89321 25.5642 9.89321C25.1229 9.89321 23.043 7.44533 22.307 7.44533C22.0386 7.44533 22.0131 7.81181 22.0131 8.35104V9.18346C22.0131 9.74662 21.9884 10.0899 21.7207 10.0899C21.082 10.0899 20.7888 8.30243 20.177 8.30243C19.5398 8.30243 19.4172 11.4855 18.8061 11.4855C18.0949 11.4855 18.7074 7.98307 18.0216 7.98307C17.2625 7.98307 16.4046 10.3105 15.8654 10.3105C15.6702 10.3105 15.6216 10.1138 15.6216 9.94258C15.6216 9.23282 16.0366 8.0818 16.0366 7.39672C16.0366 7.05269 15.9387 6.85748 15.6462 6.85748C14.8856 6.85748 13.2208 8.0818 12.5843 8.0818C12.4864 8.0818 12.3637 8.03318 12.3637 7.93446C12.3637 7.34811 15.033 5.48583 15.033 4.65342C15.033 3.84419 11.3578 4.38417 11.3578 3.45229C11.3578 2.66924 13.9807 1.86076 13.9807 1.05227C13.9807 0.341768 10.8694 0.0246582 9.66976 0.0246582C8.22407 0.0246582 7.44102 0.194432 7.44102 0.611013C7.44102 1.24822 10.7236 1.44492 10.7236 2.00734C10.7236 2.54658 7.31836 3.99153 7.31836 4.82394C7.31836 5.55913 12.1184 4.87255 12.1184 5.63317C12.1184 6.46484 7.93164 10.0645 7.93164 11.2649C7.93164 11.5349 8.12759 11.6575 8.39608 11.6575C9.66976 11.6575 12.9747 9.23282 13.8819 9.23282C14.2005 9.23282 14.2252 9.62397 14.2252 9.96726C14.2252 10.6045 14.0053 11.5835 14.0053 12.2947C14.0053 12.8571 14.1519 13.249 14.6411 13.249C15.549 13.249 16.3799 11.7061 16.994 11.7061C17.777 11.7061 17.3118 16.2369 18.4875 16.2369C19.4912 16.2369 19.907 11.3389 20.5442 11.3389C21.1815 11.3389 21.6968 12.7592 22.2839 12.7592C23.0176 12.7592 22.675 10.2859 23.4596 10.2859C24.3159 10.2859 26.7653 13.2251 27.8677 13.2251C28.2102 13.2251 28.3321 12.9551 28.3321 12.6118C28.3321 11.3135 26.5207 8.37572 26.5207 7.44533C26.5207 7.20077 26.5933 7.12673 26.8625 7.12673C27.8176 7.12673 30.611 8.44902 31.9325 8.44902C32.3768 8.44902 32.6453 8.20445 32.6453 7.88585ZM30.0972 3.03646C30.0972 3.47697 31.6401 4.43279 32.3514 4.43279C32.7672 4.43279 32.8898 3.86887 32.8898 3.28102C32.8898 2.54658 32.5727 2.5219 31.9348 2.5219C31.1263 2.5219 30.0972 2.74253 30.0972 3.03646ZM24.3413 0.537718C24.3413 0.390382 23.6069 0.243045 22.6032 0.243045C21.0109 0.243045 21.2316 1.56758 20.0072 1.56758C18.7336 1.56758 19.0507 0.194432 17.4345 0.194432C16.4547 0.194432 15.5498 0.366449 15.5498 0.586332C15.5498 0.881005 16.7 0.758349 16.7 1.56758C16.7 2.42392 14.226 2.66924 14.226 3.18379C14.226 3.35506 14.4212 3.42836 14.6665 3.42836C15.2065 3.42836 16.0621 3.18379 16.6754 3.18379C17.0186 3.18379 17.3372 3.25634 17.3372 3.57494C17.3372 4.18748 16.0135 5.28988 16.0135 5.77976C16.0135 5.92709 16.1354 5.97646 16.258 5.97646C16.7486 5.97646 17.5818 4.72671 18.3649 4.72671C19.6632 4.72671 18.8069 7.49395 19.5159 7.49395C20.2503 7.49395 19.9325 4.77458 20.9855 4.77458C21.8441 4.77458 22.4798 6.66079 23.0677 6.66079C23.215 6.66079 23.3369 6.53888 23.3369 6.36686C23.3369 5.8538 22.6025 4.79926 22.6025 4.11418C22.6025 3.6976 22.8964 3.5009 23.2883 3.5009C23.8507 3.5009 24.6106 3.84419 25.0257 3.84419C25.1723 3.84419 25.3196 3.79558 25.3196 3.62431C25.3196 3.03646 23.1417 2.39999 23.1417 1.64087C23.1425 0.881005 24.3413 0.881005 24.3413 0.537718Z" fill="#113F59"/>
<path d="M67.7626 4.5068C67.7626 6.68544 66.1748 8.35101 63.3059 8.81621C63.6252 8.84014 63.9191 8.84014 64.2138 8.84014C67.5667 8.84014 68.7932 7.32265 68.7932 6.04972C68.7932 5.33847 68.4006 4.70275 67.7626 4.5068ZM63.6252 6.97936C63.6252 5.24049 59.4646 4.79923 59.4646 4.40808C59.4646 4.09022 61.7876 3.55023 62.988 3.52555C61.1512 1.1749 58.5335 1.42021 58.5335 1.00363C58.5335 0.75832 60.4938 0.267696 62.3037 0.267696C63.8219 0.267696 65.2429 0.610983 65.2429 1.762C65.2429 2.39996 64.7284 3.06186 64.7284 4.04011C64.7284 4.57935 64.9961 5.04454 65.7089 5.04454C66.4702 5.04454 66.64 4.23681 66.64 3.37822C66.64 2.66921 66.5181 2.12997 66.5181 1.78668C66.5181 0.75832 67.2234 0.0732422 68.2285 0.0732422C69.0617 0.0732422 69.2584 0.438966 70.4842 0.438966C69.8216 0.832362 69.577 1.54287 69.577 1.88466C69.577 2.91452 70.2404 3.62428 70.2404 5.73111C70.2404 9.59926 66.6161 10.9709 62.181 10.9709C60.9619 10.9709 59.6613 10.8729 58.3862 10.6777C58.191 10.6531 58.1416 10.6044 58.1416 10.4818C58.1416 10.1632 59.8827 9.99116 59.8827 8.42505C59.8827 7.81178 59.686 7.22467 59.686 7.00479C59.686 6.88213 59.784 6.80809 59.8827 6.80809C60.2499 6.80809 60.9866 8.22836 62.3538 8.22836C62.7173 8.22836 63.6252 8.1057 63.6252 6.97936ZM67.616 1.56755C67.616 1.90934 67.8853 2.17858 68.2285 2.17858C68.5718 2.17858 68.8418 1.90934 68.8418 1.56755C68.8418 1.22426 68.5718 0.95427 68.2285 0.95427C67.8853 0.95427 67.616 1.22426 67.616 1.56755Z" fill="#113F59"/>
<path d="M65.4398 24.1968C65.4398 23.683 64.1399 23.6344 64.018 22.1887C63.9926 21.9688 63.9193 21.5777 63.6493 21.5777C63.2088 21.5777 63.5513 22.9247 63.0614 22.9247C61.9351 22.9247 61.5679 20.7198 61.1513 20.7198C61.0526 20.7198 60.9359 20.7931 60.9359 21.0871C60.9359 21.3571 60.9853 21.5283 60.9853 21.8454C60.9853 22.1648 60.9105 22.3854 60.6173 22.3854C59.9554 22.3854 59.3668 20.8418 58.8029 20.8418C58.6802 20.8418 58.5583 20.9158 58.5583 21.0384C58.5583 21.3324 59.0475 21.8701 59.0475 22.1401C59.0475 22.7287 57.4544 22.4094 57.4544 22.9C57.4544 23.1206 57.6743 23.1932 57.969 23.1932C58.4843 23.1932 59.2935 22.974 59.7101 22.974C59.9554 22.974 60.3226 23.0226 60.3226 23.3397C60.3226 23.683 59.4401 24.1235 59.4401 24.4421C59.4401 24.5895 59.5867 24.662 59.7093 24.662C60.3712 24.662 61.5425 23.5118 62.3756 23.5118C62.5222 23.5118 62.8894 23.5851 62.8894 23.8057C62.8894 24.1235 62.057 24.686 62.057 25.1519C62.057 25.2746 62.1318 25.4212 62.2784 25.4212C62.7167 25.4212 63.3053 24.2709 64.1392 24.2709C64.4578 24.2709 64.9237 24.3935 65.1698 24.3935C65.3665 24.3935 65.4398 24.2709 65.4398 24.1968ZM66.077 36.0758C66.4696 34.8522 66.9603 33.9936 67.7628 32.6713C66.9603 32.2562 64.8265 31.3729 64.8265 29.928C64.8265 28.2377 66.9333 26.9155 67.3701 26.9155C67.5668 26.9155 67.6154 27.0875 67.6154 27.4061C67.6154 28.2871 67.1988 29.7074 67.1988 30.4672C67.1988 31.1523 67.6401 31.815 68.032 31.815C68.4486 31.815 69.6003 30.3453 69.6003 28.8996C69.6003 26.3029 67.3207 25.5199 66.6155 25.5199C65.9536 25.5199 64.7524 26.5969 61.9344 26.5969C56.6699 26.5969 55.4688 21.3817 55.4688 19.1029C55.4688 19.0049 55.4919 18.9802 55.5166 18.9802C55.6393 18.9802 56.1553 19.6182 57.8209 19.6182C58.6787 19.6182 59.4633 19.3968 60.7138 19.3968C63.6478 19.3968 64.9476 21.4311 66.7621 24.0256C67.8592 24.7106 70.4829 25.8138 70.4829 28.9243C70.4829 31.6676 67.5661 33.1859 66.86 36.1251C67.9819 36.0032 68.6445 33.9936 69.7963 33.9936C70.3849 33.9936 70.6541 34.4595 70.6541 35.1955C70.6541 36.2717 70.0409 37.8894 68.8644 38.8931C68.8883 38.7951 68.8883 38.6717 68.8883 38.5251C68.8883 37.84 68.6198 36.861 67.8338 36.861C66.614 36.861 66.2221 38.1833 65.5362 39.2842C64.825 36.787 63.8692 34.5328 62.155 33.1612C60.4206 31.7656 57.429 32.524 57.429 29.9774C57.429 29.2908 57.871 28.3118 57.871 27.528C57.871 27.2587 57.8216 27.0134 57.6736 26.8175C60.0272 27.7 59.1933 29.2661 60.6412 30.8831C61.5425 31.9129 64.0419 32.8919 65.4876 37.1288C65.5116 37.0069 65.5362 36.689 65.5362 36.4684C65.5362 32.8433 60.7377 29.2908 60.3211 27.8212C63.1086 28.1398 63.5984 28.8263 64.9222 32.5C65.1937 33.2599 66.077 35.1461 66.077 36.0758Z" fill="#113F59"/>
<path d="M52.6799 10.1632C50.9635 10.1632 49.8364 9.30688 49.8364 8.86487C49.8364 8.64424 49.983 8.4984 50.1804 8.4984C50.7189 8.4984 51.8954 9.33007 52.2865 9.33007C52.386 9.33007 52.4585 9.2822 52.4585 9.13486C52.4585 8.6936 52.0419 7.95916 52.0419 7.59269C52.0419 7.49397 52.116 7.42142 52.2626 7.42142C52.9237 7.42142 53.9042 7.69067 54.4203 7.69067C54.5915 7.69067 54.6402 7.59269 54.6402 7.49397C54.6402 6.95548 53.0464 5.90244 53.0464 5.58383C53.0464 5.2899 55.0268 4.8479 55.0268 4.3842C55.0268 3.89357 52.3344 4.23686 52.3344 3.77092C52.3344 3.42838 52.8497 2.84053 52.8497 2.57128C52.8497 2.44863 52.751 2.40001 52.5804 2.40001C52.3598 2.40001 51.1834 2.86521 50.6927 2.86521C50.4482 2.86521 50.1535 2.8166 50.1535 2.47256C50.1535 1.90939 51.1093 1.29761 52.6051 1.29761C55.0261 1.29761 56.4733 2.96318 56.4733 5.7551C56.4748 9.2822 54.0037 10.1632 52.6799 10.1632ZM47.9053 5.51054C47.9053 5.24054 46.948 4.72674 46.948 4.43281C46.948 4.3842 46.9959 4.35952 47.0699 4.35952C47.3406 4.35952 47.8066 4.45749 48.1753 4.45749C48.4939 4.45749 48.5425 3.08584 48.7833 3.08584C48.9546 3.08584 49.2478 4.3842 49.5193 4.3842C49.8371 4.3842 50.425 4.01623 50.6703 4.01623C50.7189 4.01623 50.7683 4.04016 50.7683 4.09027C50.7683 4.26154 50.1557 4.92194 50.1557 5.11789C50.1557 5.33852 51.5289 5.60851 51.5289 5.80446C51.5289 6.04977 50.1311 6.02509 50.1311 6.24572C50.1311 6.4155 50.6464 7.10207 50.6464 7.3227C50.6464 7.37206 50.6209 7.39674 50.5723 7.39674C50.3756 7.39674 49.6165 7.05271 49.3959 7.05271C49.1259 7.05271 48.6899 8.05714 48.4692 8.05714C48.3959 8.05714 48.3473 7.95916 48.3473 7.83651L48.298 6.85751C48.298 6.75953 48.2501 6.66081 48.1267 6.66081C47.832 6.66081 47.2681 6.63613 47.0953 6.63613C46.9727 6.63613 46.9241 6.61219 46.9241 6.56283C46.9233 6.36688 47.9053 5.68181 47.9053 5.51054ZM47.1926 9.52527C47.586 9.52527 47.6592 10.4818 47.734 11.0443C47.7827 11.3389 47.832 11.3629 47.9547 11.3629C48.2493 11.3629 48.7138 10.2365 49.0287 10.2365C49.4931 10.2365 50.7443 11.5349 52.8272 11.5349C55.7889 11.5349 58.5831 9.45197 58.5831 5.77978C58.5831 2.228 56.0814 0.145841 52.6305 0.145841C50.9897 0.145841 49.787 0.954322 49.1498 0.954322C48.7632 0.979003 48.1753 0 47.8799 0C47.758 0 47.6353 0.243068 47.6353 0.660397C47.6353 0.930389 47.6353 1.78674 47.3406 1.78674C46.7513 1.78674 44.4747 0.0979751 44.4747 0.70901C44.4747 1.27293 45.9914 2.98787 45.9914 3.42838C45.9914 3.86889 44.4986 4.28622 44.4986 4.5794C44.4986 5.11789 46.0901 5.21586 46.0901 5.90244C46.0901 6.58751 44.4238 7.12675 44.4238 7.64131C44.4238 8.05714 46.0901 7.76396 46.0901 8.27777C46.0901 8.79158 44.8658 10.5065 44.8658 10.9949C44.8658 11.1183 44.8898 11.1183 44.987 11.1183C45.4529 11.1183 46.8493 9.52527 47.1926 9.52527Z" fill="#113F59"/>
<path d="M36.0985 52.5348C36.0985 52.7554 36.0244 53.0007 35.8285 53.2446C35.5607 52.7554 34.8001 52.5101 34.4568 52.5109C31.9342 52.5109 32.8892 56.1606 30.1953 56.1606C29.069 56.1606 28.9702 56.0133 28.5551 56.0133C28.3831 56.0133 28.2852 56.0873 28.2852 56.2339C28.2852 56.8719 29.1916 58.438 31.7143 58.438C34.237 58.438 36.6624 56.8958 36.6624 54.9834C36.6624 54.6648 36.5891 54.3245 36.4418 53.9812C36.5397 53.8339 36.7858 53.7359 37.0057 53.7359C37.3968 53.7359 37.6175 54.1787 37.9847 54.1787C38.3773 54.1787 38.6713 53.8833 38.6713 53.4921C38.6713 53.172 38.5 52.9529 38.2068 52.804C38.4028 52.6582 38.5494 52.4129 38.5494 52.1437C38.5494 51.7256 38.2547 51.3359 37.7641 51.3359C37.5434 51.3359 37.3976 51.4107 37.2263 51.5782C37.1785 51.14 36.9324 50.7234 36.4664 50.7234C36.0992 50.7234 35.8285 50.9919 35.8285 51.41C35.8285 51.7989 36.0985 52.119 36.0985 52.5348Z" fill="#113F59"/>
<path d="M22.6769 47.9808C24.6364 48.4677 25.6162 49.5215 25.8114 50.7712C26.0073 51.9708 26.2519 52.9521 26.7171 53.4405C27.3296 54.1278 28.53 54.7366 29.5838 54.7366C30.4655 54.7366 31.1746 54.4456 31.1746 53.6364C31.1746 52.7539 29.9749 50.7705 28.2114 50.7705C28.0401 50.7705 27.8195 50.7959 27.5742 50.7959C27.3535 50.7959 27.0349 50.7473 26.8397 50.5753C26.4486 50.2312 26.3252 48.3944 25.5907 47.2927C24.783 46.0677 23.9012 45.7244 22.7016 45.7244C21.8452 45.7244 20.8887 46.1888 20.8887 46.8754C20.8887 47.2942 21.1093 47.5874 22.6769 47.9808ZM29.5105 53.4659C28.7745 53.4659 27.6729 52.6806 27.6729 52.2393C27.6729 51.8714 28.0162 51.6754 28.2839 51.6754C28.8972 51.6754 29.9981 52.4368 29.9981 53.0732C29.9989 53.2445 29.8762 53.4659 29.5105 53.4659Z" fill="#113F59"/>
<path d="M27.2564 34.3864C27.2564 32.8188 30.9802 31.9864 30.9802 30.0508C30.9802 29.7322 30.8576 29.1698 30.6369 28.7532C31.9338 29.4629 32.8896 30.6641 32.8896 31.6431C32.8896 33.3333 31.1268 34.1171 31.1268 35.1709C31.1268 36.3952 33.0123 36.5912 33.0123 38.1094C33.0123 39.3577 31.224 40.8034 31.224 42.4196C31.224 43.6686 32.1066 44.6962 33.452 44.8682C33.0115 44.9662 32.6204 45.0395 32.2038 45.0395C29.729 45.0395 27.1824 43.0074 27.1824 40.582C27.1824 39.3823 27.6969 38.3308 28.4792 37.5709C29.1666 38.1588 29.8516 38.5499 30.2929 38.5499C30.6841 38.5499 30.8568 38.3547 30.8568 38.0608C30.8576 37.1536 27.2564 36.3219 27.2564 34.3864ZM35.0697 46.7552C34.2299 47.1396 33.8948 47.0738 33.8948 47.9316C33.8948 48.2495 33.8208 48.6638 33.8208 48.8852C33.8208 49.1791 33.8694 49.3511 34.2119 49.3511C35.0944 49.3511 36.4908 47.8576 36.4908 46.5831C36.4908 46.2391 36.2941 46.0948 36.0734 46.0948C35.8775 46.0948 35.6583 46.4852 35.0697 46.7552ZM34.9718 44.9909C34.9718 43.8892 32.6937 43.8645 32.6937 42.1989C32.6937 41.7816 32.9622 41.0726 33.5021 40.312C33.7235 41.5857 34.2358 42.2476 35.3397 42.6649C37.5184 43.4719 37.8131 44.6962 37.8131 45.996C37.8131 48.2008 36.2701 50.9434 32.3025 50.9434C29.118 50.9434 26.8398 48.1014 26.8398 45.7014C26.8398 45.0395 27.0111 44.3058 27.4277 44.3058C27.7957 44.3058 27.9176 44.599 28.2115 44.8921C29.3146 45.996 30.5143 46.2885 32.2532 46.2885C33.8208 46.2892 34.9718 45.6527 34.9718 44.9909Z" fill="#113F59"/>
<path d="M17.6268 45.5217C17.6867 46.0333 17.3209 46.4947 16.8101 46.5546C16.2986 46.6144 15.8349 46.2479 15.7765 45.7371C15.7167 45.2248 16.0824 44.7619 16.594 44.702C17.1055 44.6422 17.5677 45.0094 17.6268 45.5217ZM13.0497 46.485C13.1536 47.3212 13.9337 47.9554 14.814 47.8574C15.1318 47.8223 15.4265 47.7355 15.6232 47.6128C15.8191 48.3959 16.4766 48.9 17.3651 48.7833C18.267 48.6659 18.8803 47.9554 18.7831 47.0489C18.7576 46.8051 18.709 46.6563 18.6365 46.485C18.6365 46.485 18.7554 46.4723 18.8452 46.4558C19.7299 46.2883 20.326 45.5786 20.252 44.7215C20.1547 43.8397 19.3634 43.1853 18.54 43.287C18.2207 43.3259 17.926 43.4478 17.7293 43.6191C17.5079 42.8854 16.8176 42.2474 15.8752 42.403C15.0234 42.5443 14.4602 43.2668 14.5455 44.183C14.5597 44.3318 14.5941 44.5016 14.6681 44.6721C14.6681 44.6721 14.5238 44.6938 14.4243 44.708C13.7093 44.8142 12.9337 45.5337 13.0497 46.485Z" fill="#113F59"/>
</svg>
